{
  "applications": "*",
  "changelogDate": "20221208160142",
  "dto": "no",
  "embedded": false,
  "entityTableName": "sms",
  "fields": [
    {
      "fieldName": "recipent",
      "fieldType": "String"
    },
    {
      "fieldName": "message",
      "fieldType": "String"
    }
  ],
  "fluentMethods": true,
  "jpaMetamodelFiltering": false,
  "name": "SMS",
  "pagination": "pagination",
  "readOnly": false,
  "relationships": [],
  "service": "serviceClass"
}
